[
	{
		"name": "Thonie Fernandez",
		"department": "Instructor",
		"yearEmployed":"2020",
		"rating":5.0
	},
	{
		"name": "Charles Quimpo",
		"department": "Instructor",
		"yearEmployed":"2010",
		"rating":5.0
	},
	{
		"name": "Martin Miguel",
		"department": "Instructor",
		"yearEmployed":"2019",
		"rating":4.0
	},
	{
		"name": "Alvin Estiva",
		"department": "Instructor",
		"yearEmployed":"2020",
		"rating":5.0
	}
]